{
  "adult": false,
  "backdrop_path": "/6t8ES1d12OzWyCGxBeDYLHoaDrT.jpg",
  "belongs_to_collection": {
    "id": 1198260,
    "name": "Star Wars Anthology Series",
    "poster_path": "/8BfWWDQgUUGMCMdrgD7LyjWnzSF.jpg",
    "backdrop_path": "/25dYjSLuyaz9u9rpGK1wQzje0pG.jpg"
  },
  "budget": 200000000,
  "genres": [
    {
      "id": 28,
      "name": "Action"
    },
    {
      "id": 12,
      "name": "Adventure"
    },
    {
      "id": 878,
      "name": "Science Fiction"
    }
  ],
  "homepage": "http://www.starwars.com/films/rogue-one",
  "id": 330459,
  "imdb_id": "tt3748528",
  "original_language": "en",
  "original_title": "Rogue One: A Star Wars Story",
  "overview": "A rogue band of resistance fighters unite for a mission to steal the Death Star plans and bring a new hope to the galaxy.",
  "popularity": 37.966,
  "poster_path": "/i0yw1mFbB7sNGHCs7EXZPzFkdA1.jpg",
  "production_companies": [
    {
      "id": 1,
      "logo_path": "/o86DbpburjxrqAzEDhXZcyE8pDb.png",
      "name": "Lucasfilm Ltd.",
      "origin_country": "US"
    }
  ],
  "production_countries": [
    {
      "iso_3166_1": "US",
      "name": "United States of America"
    }
  ],
  "release_date": "2016-12-14",
  "revenue": 1056057273,
  "runtime": 133,
  "spoken_languages": [
    {
      "english_name": "English",
      "iso_639_1": "en",
      "name": "English"
    }
  ],
  "status": "Released",
  "tagline": "A Rebellion Built on Hope",
  "title": "Rogue One: A Star Wars Story",
  "video": false,
  "vote_average": 7.49,
  "vote_count": 14435,
  "alternative_titles": {
    "titles": [
      {
        "iso_3166_1": "US",
        "title": "Star Wars: Rogue One",
        "type": "informal title"
      },
      {
        "iso_3166_1": "BR",
        "title": "Rogue One: Uma História de Guerra nas Estrelas",
        "type": ""
      }
    ]
  },
  "credits": {
    "cast": [
      {
        "adult": false,
        "gender": 1,
        "id": 72855,
        "known_for_department": "Acting",
        "name": "Felicity Jones",
        "original_name": "Felicity Jones",
        "popularity": 38.325,
        "profile_path": "/35KdWSfTldNEdsn4MUGFIRoxJEu.jpg",
        "cast_id": 4,
        "character": "Jyn Erso",
        "credit_id": "5511b37d9251412a88001134",
        "order": 0
      },
      {
        "adult": false,
        "gender": 2,
        "id": 8688,
        "known_for_department": "Acting",
        "name": "Diego Luna",
        "original_name": "Diego Luna",
        "popularity": 19.731,
        "profile_path": "/uH8sMbiMmy9sprKr1vJpoPBB40E.jpg",
        "cast_id": 7,
        "character": "Captain Cassian Andor",
        "credit_id": "55540f0ec3a368208c000fad",
        "order": 1
      },
      {
        "adult": false,
        "gender": 2,
        "id": 21088,
        "known_for_department": "Acting",
        "name": "Alan Tudyk",
        "original_name": "Alan Tudyk",
        "popularity": 47.604,
        "profile_path": "/jUuUbPuMGonFT5E2pcs4alfqaCN.jpg",
        "cast_id": 14,
        "character": "K-2SO",
        "credit_id": "55cfaf4b92514131a20056e9",
        "order": 2
      }
    ]
  },
  "release_dates": {
    "results": [
      {
        "iso_3166_1": "AU",
        "release_dates": [
          {
            "certification": "M",
            "descriptors": [],
            "iso_639_1": "",
            "note": "",
            "release_date": "2016-12-16T00:00:00.000Z",
            "type": 3
          }
        ]
      },
      {
        "iso_3166_1": "BE",
        "release_dates": [
          {
            "certification": "",
            "descriptors": [],
            "iso_639_1": "",
            "note": "",
            "release_date": "2016-12-14T00:00:00.000Z",
            "type": 3
          }
        ]
      }
    ]
  },
  "recommendations": {
    "page": 1,
    "results": [
      {
        "adult": false,
        "backdrop_path": "/8BTsTfln4jlQrLXUBquXJ0ASQy9.jpg",
        "id": 140607,
        "title": "Star Wars: The Force Awakens",
        "original_language": "en",
        "original_title": "Star Wars: The Force Awakens",
        "overview": "Thirty years after defeating the Galactic Empire, Han Solo and his allies face a new threat from the evil Kylo Ren and his army of Stormtroopers.",
        "poster_path": "/wqnLdwVXoBjKibFRR5U3y0aDUhs.jpg",
        "media_type": "movie",
        "genre_ids": [12, 28, 878],
        "popularity": 57.465,
        "release_date": "2015-12-15",
        "video": false,
        "vote_average": 7.29,
        "vote_count": 18458
      }
    ],
    "total_pages": 2,
    "total_results": 40
  },
  "similar": {
    "page": 1,
    "results": [
      {
        "adult": false,
        "backdrop_path": "/l5KS8qI6B21yE1f53kIcwD4S3OE.jpg",
        "genre_ids": [878, 35],
        "id": 380246,
        "original_language": "ja",
        "original_title": "ギャラクシー街道",
        "overview": "Set in the year 2265. There is a small restaurant along the main road Galaxy Kaido, which connects Earth and the space colony Uzushio.",
        "popularity": 1.899,
        "poster_path": "/sByeDAd4BftA41LTYgJQKIX1RT5.jpg",
        "release_date": "2015-10-24",
        "title": "Galaxy Turnpike",
        "video": false,
        "vote_average": 6.8,
        "vote_count": 5
      }
    ],
    "total_pages": 3480,
    "total_results": 69583
  }
}
